<svg width="101" height="101" viewBox="0 0 101 101" fill="none" xmlns="http://www.w3.org/2000/svg">
<rect width="101" height="101" rx="20" fill="#E3F0FF"/>
<path d="M29.5321 54.9532H25.7661C25.2461 54.9532 24.8245 55.3748 24.8245 55.8947V59.6608C24.8245 60.1807 25.2461 60.6023 25.7661 60.6023H29.5321C30.0521 60.6023 30.4737 60.1807 30.4737 59.6608V55.8947C30.4737 55.3748 30.0521 54.9532 29.5321 54.9532ZM28.5906 58.7193H26.7076V56.8362H28.5906V58.7193Z" fill="#2779DA"/>
<path d="M29.5321 62.4854H25.7661C25.2461 62.4854 24.8245 62.9069 24.8245 63.4269V67.193C24.8245 67.7129 25.2461 68.1345 25.7661 68.1345H29.5321C30.0521 68.1345 30.4737 67.7129 30.4737 67.193V63.4269C30.4737 62.9069 30.0521 62.4854 29.5321 62.4854ZM28.5906 66.2515H26.7076V64.3684H28.5906V66.2515Z" fill="#2779DA"/>
<path d="M37.0643 62.4854H33.2982C32.7783 62.4854 32.3567 62.9069 32.3567 63.4269V67.193C32.3567 67.7129 32.7783 68.1345 33.2982 68.1345H37.0643C37.5843 68.1345 38.0058 67.7129 38.0058 67.193V63.4269C38.0058 62.9069 37.5843 62.4854 37.0643 62.4854ZM36.1228 66.2515H34.2398V64.3684H36.1228V66.2515Z" fill="#2779DA"/>
<path d="M37.0643 54.9532H33.2982C32.7783 54.9532 32.3567 55.3748 32.3567 55.8947V59.6608C32.3567 60.1807 32.7783 60.6023 33.2982 60.6023H37.0643C37.5843 60.6023 38.0058 60.1807 38.0058 59.6608V55.8947C38.0058 55.3748 37.5843 54.9532 37.0643 54.9532ZM36.1228 58.7193H34.2398V56.8362H36.1228V58.7193Z" fill="#2779DA"/>
<path d="M44.5964 54.9532H40.8303C40.3104 54.9532 39.8888 55.3748 39.8888 55.8947V59.6608C39.8888 60.1807 40.3104 60.6023 40.8303 60.6023H44.5964C45.1164 60.6023 45.5379 60.1807 45.5379 59.6608V55.8947C45.5379 55.3748 45.1164 54.9532 44.5964 54.9532ZM43.6549 58.7193H41.7719V56.8362H43.6549V58.7193Z" fill="#2779DA"/>
<path d="M44.5964 54.9532H40.8303C40.3104 54.9532 39.8888 55.3748 39.8888 55.8947V59.6608C39.8888 60.1807 40.3104 60.6023 40.8303 60.6023H44.5964C45.1164 60.6023 45.5379 60.1807 45.5379 59.6608V55.8947C45.5379 55.3748 45.1164 54.9532 44.5964 54.9532ZM43.6549 58.7193H41.7719V56.8362H43.6549V58.7193Z" fill="#2779DA"/>
<path d="M44.5964 62.4854H40.8303C40.3104 62.4854 39.8888 62.9069 39.8888 63.4269V67.193C39.8888 67.7129 40.3104 68.1345 40.8303 68.1345H44.5964C45.1164 68.1345 45.5379 67.7129 45.5379 67.193V63.4269C45.5379 62.9069 45.1164 62.4854 44.5964 62.4854ZM43.6549 66.2515H41.7719V64.3684H43.6549V66.2515Z" fill="#2779DA"/>
<path d="M44.5964 62.4854H40.8303C40.3104 62.4854 39.8888 62.9069 39.8888 63.4269V67.193C39.8888 67.7129 40.3104 68.1345 40.8303 68.1345H44.5964C45.1164 68.1345 45.5379 67.7129 45.5379 67.193V63.4269C45.5379 62.9069 45.1164 62.4854 44.5964 62.4854ZM43.6549 66.2515H41.7719V64.3684H43.6549V66.2515Z" fill="#2779DA"/>
<path d="M52.1286 54.9532H48.3625C47.8426 54.9532 47.421 55.3748 47.421 55.8947V59.6608C47.421 60.1807 47.8426 60.6023 48.3625 60.6023H52.1286C52.6486 60.6023 53.0701 60.1807 53.0701 59.6608V55.8947C53.0701 55.3748 52.6486 54.9532 52.1286 54.9532ZM51.1871 58.7193H49.304V56.8362H51.1871V58.7193Z" fill="#2779DA"/>
<path d="M52.1286 62.4854H48.3625C47.8426 62.4854 47.421 62.9069 47.421 63.4269V67.193C47.421 67.7129 47.8426 68.1345 48.3625 68.1345H52.1286C52.6486 68.1345 53.0701 67.7129 53.0701 67.193V63.4269C53.0701 62.9069 52.6486 62.4854 52.1286 62.4854ZM51.1871 66.2515H49.304V64.3684H51.1871V66.2515Z" fill="#2779DA"/>
<path d="M59.6608 62.4854H55.8947C55.3748 62.4854 54.9532 62.9069 54.9532 63.4269V67.193C54.9532 67.7129 55.3748 68.1345 55.8947 68.1345H59.6608C60.1808 68.1345 60.6023 67.7129 60.6023 67.193V63.4269C60.6023 62.9069 60.1808 62.4854 59.6608 62.4854ZM58.7193 66.2515H56.8362V64.3684H58.7193V66.2515Z" fill="#2779DA"/>
<path d="M59.6608 54.9532H55.8947C55.3748 54.9532 54.9532 55.3748 54.9532 55.8947V59.6608C54.9532 60.1807 55.3748 60.6023 55.8947 60.6023H59.6608C60.1808 60.6023 60.6023 60.1807 60.6023 59.6608V55.8947C60.6023 55.3748 60.1808 54.9532 59.6608 54.9532ZM58.7193 58.7193H56.8362V56.8362H58.7193V58.7193Z" fill="#2779DA"/>
<path d="M67.193 54.9532H63.4269C62.9069 54.9532 62.4854 55.3748 62.4854 55.8947V59.6608C62.4854 60.1807 62.9069 60.6023 63.4269 60.6023H67.193C67.7129 60.6023 68.1345 60.1807 68.1345 59.6608V55.8947C68.1345 55.3748 67.7129 54.9532 67.193 54.9532ZM66.2515 58.7193H64.3684V56.8362H66.2515V58.7193Z" fill="#2779DA"/>
<path d="M67.193 54.9532H63.4269C62.9069 54.9532 62.4854 55.3748 62.4854 55.8947V59.6608C62.4854 60.1807 62.9069 60.6023 63.4269 60.6023H67.193C67.7129 60.6023 68.1345 60.1807 68.1345 59.6608V55.8947C68.1345 55.3748 67.7129 54.9532 67.193 54.9532ZM66.2515 58.7193H64.3684V56.8362H66.2515V58.7193Z" fill="#2779DA"/>
<path d="M67.193 62.4854H63.4269C62.9069 62.4854 62.4854 62.9069 62.4854 63.4269V67.193C62.4854 67.7129 62.9069 68.1345 63.4269 68.1345H67.193C67.7129 68.1345 68.1345 67.7129 68.1345 67.193V63.4269C68.1345 62.9069 67.7129 62.4854 67.193 62.4854ZM66.2515 66.2515H64.3684V64.3684H66.2515V66.2515Z" fill="#2779DA"/>
<path d="M67.193 62.4854H63.4269C62.9069 62.4854 62.4854 62.9069 62.4854 63.4269V67.193C62.4854 67.7129 62.9069 68.1345 63.4269 68.1345H67.193C67.7129 68.1345 68.1345 67.7129 68.1345 67.193V63.4269C68.1345 62.9069 67.7129 62.4854 67.193 62.4854ZM66.2515 66.2515H64.3684V64.3684H66.2515V66.2515Z" fill="#2779DA"/>
<path d="M74.7251 54.9532H70.959C70.4391 54.9532 70.0175 55.3748 70.0175 55.8947V59.6608C70.0175 60.1807 70.4391 60.6023 70.959 60.6023H74.7251C75.2451 60.6023 75.6666 60.1807 75.6666 59.6608V55.8947C75.6666 55.3748 75.2451 54.9532 74.7251 54.9532ZM73.7836 58.7193H71.9006V56.8362H73.7836V58.7193Z" fill="#2779DA"/>
<path d="M74.7251 54.9532H70.959C70.4391 54.9532 70.0175 55.3748 70.0175 55.8947V59.6608C70.0175 60.1807 70.4391 60.6023 70.959 60.6023H74.7251C75.2451 60.6023 75.6666 60.1807 75.6666 59.6608V55.8947C75.6666 55.3748 75.2451 54.9532 74.7251 54.9532ZM73.7836 58.7193H71.9006V56.8362H73.7836V58.7193Z" fill="#2779DA"/>
<path d="M74.7251 62.4854H70.959C70.4391 62.4854 70.0175 62.9069 70.0175 63.4269V67.193C70.0175 67.7129 70.4391 68.1345 70.959 68.1345H74.7251C75.2451 68.1345 75.6666 67.7129 75.6666 67.193V63.4269C75.6666 62.9069 75.2451 62.4854 74.7251 62.4854ZM73.7836 66.2515H71.9006V64.3684H73.7836V66.2515Z" fill="#2779DA"/>
<path d="M74.7251 62.4854H70.959C70.4391 62.4854 70.0175 62.9069 70.0175 63.4269V67.193C70.0175 67.7129 70.4391 68.1345 70.959 68.1345H74.7251C75.2451 68.1345 75.6666 67.7129 75.6666 67.193V63.4269C75.6666 62.9069 75.2451 62.4854 74.7251 62.4854ZM73.7836 66.2515H71.9006V64.3684H73.7836V66.2515Z" fill="#2779DA"/>
<path d="M29.5321 70.0175H25.7661C25.2461 70.0175 24.8245 70.4391 24.8245 70.959V74.7251C24.8245 75.2451 25.2461 75.6666 25.7661 75.6666H29.5321C30.0521 75.6666 30.4737 75.2451 30.4737 74.7251V70.959C30.4737 70.4391 30.0521 70.0175 29.5321 70.0175ZM28.5906 73.7836H26.7076V71.9006H28.5906V73.7836Z" fill="#2779DA"/>
<path d="M37.0643 70.0175H33.2982C32.7783 70.0175 32.3567 70.4391 32.3567 70.959V74.7251C32.3567 75.2451 32.7783 75.6666 33.2982 75.6666H37.0643C37.5843 75.6666 38.0058 75.2451 38.0058 74.7251V70.959C38.0058 70.4391 37.5843 70.0175 37.0643 70.0175ZM36.1228 73.7836H34.2398V71.9006H36.1228V73.7836Z" fill="#2779DA"/>
<path d="M44.5964 70.0175H40.8303C40.3104 70.0175 39.8888 70.4391 39.8888 70.959V74.7251C39.8888 75.2451 40.3104 75.6666 40.8303 75.6666H44.5964C45.1164 75.6666 45.5379 75.2451 45.5379 74.7251V70.959C45.5379 70.4391 45.1164 70.0175 44.5964 70.0175ZM43.6549 73.7836H41.7719V71.9006H43.6549V73.7836Z" fill="#2779DA"/>
<path d="M44.5964 70.0175H40.8303C40.3104 70.0175 39.8888 70.4391 39.8888 70.959V74.7251C39.8888 75.2451 40.3104 75.6666 40.8303 75.6666H44.5964C45.1164 75.6666 45.5379 75.2451 45.5379 74.7251V70.959C45.5379 70.4391 45.1164 70.0175 44.5964 70.0175ZM43.6549 73.7836H41.7719V71.9006H43.6549V73.7836Z" fill="#2779DA"/>
<path d="M52.1286 70.0175H48.3625C47.8426 70.0175 47.421 70.4391 47.421 70.959V74.7251C47.421 75.2451 47.8426 75.6666 48.3625 75.6666H52.1286C52.6486 75.6666 53.0701 75.2451 53.0701 74.7251V70.959C53.0701 70.4391 52.6486 70.0175 52.1286 70.0175ZM51.1871 73.7836H49.304V71.9006H51.1871V73.7836Z" fill="#2779DA"/>
<path d="M59.6608 70.0175H55.8947C55.3748 70.0175 54.9532 70.4391 54.9532 70.959V74.7251C54.9532 75.2451 55.3748 75.6666 55.8947 75.6666H59.6608C60.1808 75.6666 60.6023 75.2451 60.6023 74.7251V70.959C60.6023 70.4391 60.1808 70.0175 59.6608 70.0175ZM58.7193 73.7836H56.8362V71.9006H58.7193V73.7836Z" fill="#2779DA"/>
<path d="M67.193 70.0175H63.4269C62.9069 70.0175 62.4854 70.4391 62.4854 70.959V74.7251C62.4854 75.2451 62.9069 75.6666 63.4269 75.6666H67.193C67.7129 75.6666 68.1345 75.2451 68.1345 74.7251V70.959C68.1345 70.4391 67.7129 70.0175 67.193 70.0175ZM66.2515 73.7836H64.3684V71.9006H66.2515V73.7836Z" fill="#2779DA"/>
<path d="M67.193 70.0175H63.4269C62.9069 70.0175 62.4854 70.4391 62.4854 70.959V74.7251C62.4854 75.2451 62.9069 75.6666 63.4269 75.6666H67.193C67.7129 75.6666 68.1345 75.2451 68.1345 74.7251V70.959C68.1345 70.4391 67.7129 70.0175 67.193 70.0175ZM66.2515 73.7836H64.3684V71.9006H66.2515V73.7836Z" fill="#2779DA"/>
<path d="M74.7251 70.0175H70.959C70.4391 70.0175 70.0175 70.4391 70.0175 70.959V74.7251C70.0175 75.2451 70.4391 75.6666 70.959 75.6666H74.7251C75.2451 75.6666 75.6666 75.2451 75.6666 74.7251V70.959C75.6666 70.4391 75.2451 70.0175 74.7251 70.0175ZM73.7836 73.7836H71.9006V71.9006H73.7836V73.7836Z" fill="#2779DA"/>
<path d="M74.7251 70.0175H70.959C70.4391 70.0175 70.0175 70.4391 70.0175 70.959V74.7251C70.0175 75.2451 70.4391 75.6666 70.959 75.6666H74.7251C75.2451 75.6666 75.6666 75.2451 75.6666 74.7251V70.959C75.6666 70.4391 75.2451 70.0175 74.7251 70.0175ZM73.7836 73.7836H71.9006V71.9006H73.7836V73.7836Z" fill="#2779DA"/>
<path d="M77.5497 52.1287H51.1871V51.1871C51.1871 50.6672 51.6087 50.2456 52.1287 50.2456H71.9006C75.5405 50.2456 78.4912 47.2949 78.4912 43.655C78.4912 40.0151 75.5405 37.0643 71.9006 37.0643H28.5906C25.9908 37.0643 23.883 34.9566 23.883 32.3567C23.883 29.7568 25.9908 27.6491 28.5906 27.6491H48.3626C49.9226 27.6491 51.1871 26.3845 51.1871 24.8246V22H49.3041V24.8246C49.3041 25.3445 48.8825 25.7661 48.3626 25.7661H28.5906C24.9507 25.7661 22 28.7168 22 32.3567C22 35.9966 24.9507 38.9474 28.5906 38.9474H71.9006C74.5005 38.9474 76.6082 41.0551 76.6082 43.655C76.6082 46.2549 74.5005 48.3626 71.9006 48.3626H52.1287C50.5687 48.3626 49.3041 49.6272 49.3041 51.1871V52.1287H22.9415C22.4216 52.1287 22 52.5502 22 53.0702V77.5497C22 78.0697 22.4216 78.4912 22.9415 78.4912H77.5497C78.0697 78.4912 78.4912 78.0697 78.4912 77.5497V53.0702C78.4912 52.5502 78.0697 52.1287 77.5497 52.1287ZM76.6082 76.6082H23.883V54.0117H76.6082V76.6082Z" fill="#2779DA"/>
</svg>
