<svg width="101" height="101" viewBox="0 0 101 101" fill="none" xmlns="http://www.w3.org/2000/svg">
<rect width="101" height="101" rx="20" fill="#E3F0FF"/>
<path d="M74.7836 27H27.7076C25.109 27.0031 23.0031 29.109 23 31.7076V59.9532C23.0031 62.5518 25.109 64.6578 27.7076 64.6608H44.6182C44.4434 67.1391 43.5209 69.5061 41.9726 71.4492L41.3785 72.193H38.0643C37.5444 72.193 37.1228 72.6145 37.1228 73.1345C37.1228 73.6544 37.5444 74.076 38.0643 74.076H64.4269C64.9469 74.076 65.3684 73.6544 65.3684 73.1345C65.3684 72.6145 64.9469 72.193 64.4269 72.193H61.1127L60.5186 71.4492C58.972 69.5054 58.0506 67.1387 57.8758 64.6608H74.7836C77.3822 64.6578 79.4882 62.5518 79.4912 59.9532V31.7076C79.4882 29.109 77.3822 27.0031 74.7836 27ZM27.7076 28.883H74.7836C75.9763 28.888 77.0374 29.6416 77.4349 30.7661H25.0563C25.4538 29.6416 26.5149 28.888 27.7076 28.883ZM58.7156 72.193H43.7756C45.389 69.9959 46.3368 67.3813 46.506 64.6608H55.9777C56.1473 67.3825 57.0979 69.9977 58.7156 72.193ZM77.6082 59.9532C77.6082 61.5132 76.3436 62.7778 74.7836 62.7778H27.7076C26.1476 62.7778 24.883 61.5132 24.883 59.9532V59.0117H77.6082V59.9532ZM77.6082 57.1287H24.883V32.6491H77.6082V57.1287Z" fill="#2779DA"/>
<path d="M53.1287 59.9532H49.3626C48.8426 59.9532 48.4211 60.3748 48.4211 60.8947C48.4211 61.4147 48.8426 61.8362 49.3626 61.8362H53.1287C53.6486 61.8362 54.0702 61.4147 54.0702 60.8947C54.0702 60.3748 53.6486 59.9532 53.1287 59.9532Z" fill="#2779DA"/>
</svg>
