<svg width="473" height="443" viewBox="0 0 473 443" fill="none" xmlns="http://www.w3.org/2000/svg">
<path opacity="0.6" d="M447.415 443H149.564C148.051 443 146.829 441.778 146.829 440.265C146.829 438.751 148.051 437.529 149.564 437.529H447.415C448.929 437.529 450.151 438.751 450.151 440.265C450.151 441.778 448.929 443 447.415 443Z" fill="url(#paint0_linear)"/>
<path opacity="0.6" d="M127.655 443H45.5839C44.0705 443 42.8486 441.778 42.8486 440.265C42.8486 438.751 44.0705 437.529 45.5839 437.529H127.655C129.169 437.529 130.391 438.751 130.391 440.265C130.391 441.778 129.169 443 127.655 443Z" fill="url(#paint1_linear)"/>
<path opacity="0.4" d="M421.201 254.976C421.201 231.275 401.985 212.072 378.298 212.072H348.641C340.032 212.072 333.049 205.088 333.049 196.48V181.276C333.049 172.668 326.065 165.684 317.456 165.684H306.029C297.421 165.684 290.437 158.7 290.437 150.092V149.203V144.344V131.486C290.437 122.878 297.421 115.894 306.029 115.894H329.911C338.519 115.894 345.503 108.91 345.503 100.302C345.503 91.6934 338.519 84.7095 329.911 84.7095H65.8962C57.2878 84.7095 50.3038 91.6934 50.3038 100.302C50.3038 108.91 57.2878 115.894 65.8962 115.894H98.0111C105.87 115.894 112.229 122.267 112.229 130.112C112.229 137.971 105.856 144.33 98.0111 144.33H88.0698C79.4614 144.33 72.4774 151.314 72.4774 159.922C72.4774 168.53 79.4614 175.514 88.0698 175.514H110.91C117.449 175.514 122.739 180.804 122.739 187.344V196.05C122.739 204.88 115.575 212.045 106.744 212.045H76.2401C52.5392 212.045 33.3369 231.261 33.3369 254.948C33.3369 278.649 52.5531 297.851 76.2401 297.851H101.815C113.048 297.851 122.142 306.945 122.142 318.178C122.142 329.411 113.048 338.505 101.815 338.505H86.6813C78.0729 338.505 71.089 345.489 71.089 354.097C71.089 362.706 78.0729 369.69 86.6813 369.69H361.845C370.453 369.69 377.437 362.706 377.437 354.097C377.437 345.489 370.453 338.505 361.845 338.505H338.477C327.245 338.505 318.15 329.411 318.15 318.178C318.15 306.945 327.245 297.851 338.477 297.851H378.298C401.985 297.893 421.201 278.676 421.201 254.976Z" fill="#DCDDDE"/>
<path d="M420.452 412.773H0" stroke="url(#paint2_linear)" stroke-width="0.4426" stroke-miterlimit="10"/>
<path d="M300.295 136.874V222.43C300.295 225.277 297.99 227.595 295.144 227.595H135.541C132.695 227.595 130.376 225.291 130.376 222.43V136.874C130.376 134.027 132.681 131.723 135.541 131.723H295.144C298.004 131.723 300.295 134.027 300.295 136.874Z" fill="#D5D7D8"/>
<path d="M300.309 151.855V137.304C300.309 134.208 298.185 131.708 295.56 131.708H135.125C132.5 131.708 130.376 134.222 130.376 137.304V151.855H300.309Z" fill="#BABCBE"/>
<path d="M179.18 309.153H51.0395C48.943 309.153 47.249 307.459 47.249 305.362V248.033C47.249 245.937 48.943 244.243 51.0395 244.243H179.18C181.276 244.243 182.97 245.937 182.97 248.033V305.362C182.97 307.459 181.263 309.153 179.18 309.153Z" fill="#D5D7D8"/>
<path d="M182.97 257.891V248.047C182.97 245.951 181.276 244.257 179.18 244.257H51.0395C48.943 244.257 47.249 245.951 47.249 248.047V257.891H182.97Z" fill="#BABCBE"/>
<path d="M289.604 82.8076H436.294C443.931 82.8076 450.137 89.0001 450.137 96.6505V425.881C450.137 433.517 443.945 439.723 436.294 439.723H289.604C281.968 439.723 275.761 433.531 275.761 425.881V96.6505C275.775 89.014 281.968 82.8076 289.604 82.8076Z" fill="#8F8F8F"/>
<path d="M280.982 82.8076H427.672C435.308 82.8076 441.515 89.0001 441.515 96.6505V425.881C441.515 433.517 435.322 439.723 427.672 439.723H280.982C273.345 439.723 267.139 433.531 267.139 425.881V96.6505C267.139 89.014 273.331 82.8076 280.982 82.8076Z" fill="#BBBBBB"/>
<path d="M398.237 101.302H310.515C308.779 101.302 307.377 99.8995 307.377 98.1639V97.9001C307.377 96.1645 308.779 94.7622 310.515 94.7622H398.237C399.973 94.7622 401.375 96.1645 401.375 97.9001V98.1639C401.375 99.8856 399.973 101.302 398.237 101.302Z" fill="#DCDDDE"/>
<path d="M398.64 101.302H314.111C312.597 101.302 311.375 100.08 311.375 98.5668C311.375 97.0534 312.597 95.8315 314.111 95.8315H398.64C400.153 95.8315 401.375 97.0534 401.375 98.5668C401.375 100.08 400.153 101.302 398.64 101.302Z" fill="#ECECEC"/>
<path d="M429.143 420.604H279.509C278.288 420.604 277.302 419.618 277.302 418.397V115.255C277.302 114.034 278.288 113.048 279.509 113.048H429.143C430.365 113.048 431.351 114.034 431.351 115.255V418.383C431.351 419.604 430.365 420.604 429.143 420.604Z" fill="url(#paint3_linear)"/>
<path opacity="0.4" d="M420.452 390.003H380.381L301.684 113.048H341.741L420.452 390.003Z" fill="url(#paint4_linear)"/>
<path opacity="0.3" d="M406.97 390.003H366.914L288.202 113.048H328.259L406.97 390.003Z" fill="url(#paint5_linear)"/>
<path d="M159.187 251.269C159.187 252.393 158.27 253.31 157.146 253.31C156.021 253.31 155.104 252.393 155.104 251.269C155.104 250.144 156.021 249.228 157.146 249.228C158.284 249.228 159.187 250.144 159.187 251.269Z" fill="white"/>
<path d="M167.572 251.269C167.572 252.393 166.656 253.31 165.531 253.31C164.407 253.31 163.49 252.393 163.49 251.269C163.49 250.144 164.407 249.228 165.531 249.228C166.656 249.228 167.572 250.144 167.572 251.269Z" fill="white"/>
<path d="M175.945 251.269C175.945 252.393 175.029 253.31 173.904 253.31C172.78 253.31 171.863 252.393 171.863 251.269C171.863 250.144 172.78 249.228 173.904 249.228C175.029 249.228 175.945 250.144 175.945 251.269Z" fill="white"/>
<path d="M146.996 181.818C146.996 191.093 139.595 198.632 130.376 198.882V164.768C139.595 164.99 146.996 172.543 146.996 181.818Z" fill="#ECECEC"/>
<path d="M145.841 184.28C147.865 175.752 142.592 167.198 134.064 165.174C125.536 163.151 116.982 168.423 114.958 176.952C112.935 185.48 118.207 194.034 126.735 196.057C135.264 198.081 143.818 192.808 145.841 184.28Z" fill="#3686E3"/>
<path d="M137.985 173.376L127.655 183.72L122.782 178.846L120.713 180.929L125.572 185.789L127.655 187.871L140.068 175.459L137.985 173.376Z" fill="white"/>
<path d="M431.351 154.562H277.246V184.886H431.351V154.562Z" fill="url(#paint6_linear)"/>
<path d="M431.351 341.754H277.246V359.596H431.351V341.754Z" fill="url(#paint7_linear)"/>
<path d="M259.961 161.755H237.981L277.469 113.048H299.448L259.961 161.755Z" fill="#D6E9FF"/>
<path d="M303.932 161.755H281.938L321.44 113.048H343.419L303.932 161.755Z" fill="#D6E9FF"/>
<path d="M281.94 161.755H259.961L299.449 113.048H321.442L281.94 161.755Z" fill="#3686E3"/>
<path d="M347.891 161.755H325.912L365.4 113.048H387.393L347.891 161.755Z" fill="#D6E9FF"/>
<path d="M325.912 161.755H303.933L343.42 113.048H365.399L325.912 161.755Z" fill="#3686E3"/>
<path d="M391.862 161.755H369.869L409.371 113.048H431.35L391.862 161.755Z" fill="#D6E9FF"/>
<path d="M369.869 161.755H347.89L387.391 113.048H409.37L369.869 161.755Z" fill="#3686E3"/>
<path d="M248.867 174.043C242.813 174.043 237.912 169.114 237.967 163.046L237.981 161.741H259.96L259.946 163.046C259.905 169.142 254.948 174.043 248.867 174.043Z" fill="#B4C8DE"/>
<path d="M292.838 174.043C286.785 174.043 281.883 169.114 281.939 163.046L281.953 161.741H303.932L303.918 163.046C303.863 169.142 298.92 174.043 292.838 174.043Z" fill="#B4C8DE"/>
<path d="M270.845 174.043C264.792 174.043 259.89 169.114 259.946 163.046L259.96 161.741H281.939L281.925 163.046C281.883 169.142 276.941 174.043 270.845 174.043Z" fill="#1E68BE"/>
<path d="M336.797 174.043C330.744 174.043 325.842 169.114 325.898 163.046L325.912 161.741H347.891L347.877 163.046C347.836 169.142 342.893 174.043 336.797 174.043Z" fill="#B4C8DE"/>
<path d="M314.818 174.043C308.764 174.043 303.863 169.114 303.918 163.046L303.932 161.741H325.912L325.898 163.046C325.856 169.142 320.899 174.043 314.818 174.043Z" fill="#1E68BE"/>
<path d="M380.769 174.043C374.715 174.043 369.814 169.114 369.87 163.046L369.884 161.741H391.863L391.849 163.046C391.793 169.142 386.85 174.043 380.769 174.043Z" fill="#B4C8DE"/>
<path d="M358.777 174.043C352.723 174.043 347.822 169.114 347.877 163.046L347.891 161.741H369.87L369.857 163.046C369.815 169.142 364.872 174.043 358.777 174.043Z" fill="#1E68BE"/>
<path d="M391.863 161.755L431.351 113.048V161.755H391.863Z" fill="#3686E3"/>
<path d="M213.405 389.475H195.411C194.842 389.475 194.397 389.017 194.397 388.462V382.741C194.397 382.172 194.856 381.728 195.411 381.728H213.405C213.975 381.728 214.419 382.186 214.419 382.741V388.462C214.419 389.017 213.961 389.475 213.405 389.475Z" stroke="url(#paint8_linear)" stroke-width="0.4127" stroke-miterlimit="10"/>
<path d="M227.151 398.653H209.157C208.587 398.653 208.143 398.195 208.143 397.639V391.919C208.143 391.35 208.601 390.905 209.157 390.905H227.151C227.72 390.905 228.165 391.363 228.165 391.919V397.639C228.165 398.209 227.72 398.653 227.151 398.653Z" stroke="url(#paint9_linear)" stroke-width="0.4127" stroke-miterlimit="10"/>
<path d="M431.35 329.008H252.018V343.142H431.35V329.008Z" fill="white"/>
<path d="M431.351 329.008H402.068V343.142H431.351V329.008Z" fill="#D1D3D4"/>
<path opacity="0.5" d="M396.251 269.568H386.837V260.446C386.837 251.754 379.756 244.673 371.064 244.673C362.372 244.673 355.291 251.754 355.291 260.446V269.568H345.877L339.532 328.994H402.596L396.251 269.568ZM356.513 260.46C356.513 252.435 363.039 245.909 371.064 245.909C379.089 245.909 385.615 252.435 385.615 260.46V269.582H356.527V260.46H356.513Z" fill="url(#paint10_linear)"/>
<path d="M330.562 256.003V244.479C330.562 236.106 337.352 229.317 345.724 229.317C354.096 229.317 360.886 236.106 360.886 244.479V256.003" stroke="#E0F0FF" stroke-width="0.8853" stroke-miterlimit="10"/>
<path d="M331.937 256.003C331.937 256.767 331.312 257.392 330.549 257.392C329.785 257.392 329.16 256.767 329.16 256.003C329.16 255.24 329.785 254.615 330.549 254.615C331.312 254.615 331.937 255.226 331.937 256.003Z" fill="#E0F0FF"/>
<path d="M359.484 256.003C359.484 256.767 360.109 257.392 360.872 257.392C361.636 257.392 362.261 256.767 362.261 256.003C362.261 255.24 361.636 254.615 360.872 254.615C360.109 254.615 359.484 255.226 359.484 256.003Z" fill="#E0F0FF"/>
<path d="M375.382 329.008H308.625L316.803 252.254H367.19L375.382 329.008Z" fill="#2871C6"/>
<path d="M366.122 329.008H295.005L303.724 249.88H357.402L366.122 329.008Z" fill="#3686E3"/>
<path d="M315.402 255.17V243.646C315.402 235.273 322.192 228.484 330.564 228.484C338.937 228.484 345.726 235.273 345.726 243.646V255.17" stroke="white" stroke-width="0.8853" stroke-miterlimit="10"/>
<path d="M316.791 255.17C316.791 255.934 316.166 256.559 315.402 256.559C314.638 256.559 314.014 255.934 314.014 255.17C314.014 254.407 314.638 253.782 315.402 253.782C316.166 253.782 316.791 254.407 316.791 255.17Z" fill="white"/>
<path d="M344.337 255.17C344.337 255.934 344.962 256.559 345.726 256.559C346.49 256.559 347.114 255.934 347.114 255.17C347.114 254.407 346.49 253.782 345.726 253.782C344.962 253.782 344.337 254.407 344.337 255.17Z" fill="white"/>
<path opacity="0.5" d="M253.184 104.884H209.642C207.865 104.884 206.435 103.44 206.435 101.676V58.1346C206.435 56.3573 207.879 54.9272 209.642 54.9272H253.184C254.961 54.9272 256.391 56.3712 256.391 58.1346V101.676C256.391 103.454 254.961 104.884 253.184 104.884Z" fill="url(#paint11_linear)"/>
<path d="M250.227 100.552H206.685C204.908 100.552 203.478 99.1078 203.478 97.3444V53.8025C203.478 52.0253 204.922 50.5952 206.685 50.5952H250.227C252.004 50.5952 253.434 52.0392 253.434 53.8025V97.3444C253.448 99.1078 252.004 100.552 250.227 100.552Z" fill="#1D64B8"/>
<path d="M201.784 96.9556L204.061 99.2326L206.047 97.2333L201.784 96.9556Z" fill="#0439C7"/>
<path d="M252.407 51.4285L249.936 48.957L248.575 50.3177L252.407 51.4285Z" fill="#0439C7"/>
<path d="M247.783 98.0942H204.242C202.464 98.0942 201.034 96.6503 201.034 94.8869V51.345C201.034 49.5678 202.478 48.1377 204.242 48.1377H247.783C249.561 48.1377 250.991 49.5817 250.991 51.345V94.8869C250.991 96.6641 249.561 98.0942 247.783 98.0942Z" fill="#3686E3"/>
<path d="M233.302 82.7379C229.762 82.9879 226.527 83.2239 223.305 83.4461C222.569 83.5016 221.834 83.5988 221.084 83.6265C220.126 83.6682 219.182 83.5571 218.335 83.0573C217.307 82.4325 216.849 81.3356 217.127 80.086C217.252 79.5306 217.488 78.9891 217.696 78.4615C217.752 78.2949 217.793 78.1699 217.738 78.0033C216.627 74.2822 215.516 70.5612 214.405 66.8401C213.822 64.8824 213.239 62.9386 212.67 60.9809C212.614 60.7865 212.531 60.7171 212.309 60.7171C211.351 60.7309 210.393 60.7171 209.435 60.7171C208.588 60.7171 207.977 60.1339 207.977 59.3286C207.963 58.5372 208.588 57.9263 209.421 57.9263C210.809 57.9263 212.184 57.9263 213.572 57.9263C214.294 57.9263 214.78 58.3012 214.988 58.9954C215.349 60.1756 215.697 61.3558 216.044 62.5498C216.099 62.7303 216.169 62.7859 216.363 62.7859C221.736 62.7859 227.124 62.7859 232.497 62.7859C234.927 62.7859 237.356 62.7859 239.772 62.7859C240.869 62.7859 241.466 63.5217 241.258 64.5909C240.953 66.2015 240.633 67.8121 240.328 69.4227C239.87 71.8108 239.411 74.1851 238.953 76.5732C238.828 77.2535 238.384 77.684 237.704 77.7673C234.829 78.1144 231.942 78.4615 229.067 78.8086C226.138 79.1696 223.208 79.5167 220.278 79.8777C220.07 79.9055 219.848 79.9055 219.64 79.961C219.543 79.9888 219.432 80.0721 219.39 80.1554C219.071 80.9746 219.251 81.2662 220.126 81.405C220.917 81.53 221.695 81.3772 222.472 81.3217C225.263 81.1273 228.054 80.8913 230.845 80.7386C232.913 80.6275 234.982 80.6275 237.051 80.5719C237.204 80.5719 237.343 80.572 237.495 80.5997C238.078 80.6691 238.509 81.1551 238.481 81.7382C238.453 82.3353 237.995 82.7935 237.384 82.7935C237.037 82.7935 236.69 82.7657 236.343 82.7657C235.232 82.7379 234.107 82.7379 233.302 82.7379ZM223.833 70.0336C223.833 68.5202 223.833 67.0484 223.833 65.5766C221.542 65.5766 219.279 65.5766 216.988 65.5766C217.016 65.6738 217.03 65.7433 217.043 65.8127C217.446 67.1595 217.835 68.4924 218.237 69.8392C218.293 70.0058 218.376 70.0475 218.529 70.0475C220.07 70.0475 221.598 70.0475 223.139 70.0475C223.361 70.0336 223.583 70.0336 223.833 70.0336ZM225.194 76.4205C225.249 76.4205 225.291 76.4205 225.332 76.4205C227.124 76.2122 228.915 75.9901 230.706 75.7818C230.914 75.754 230.9 75.6429 230.9 75.5041C230.9 74.2684 230.9 73.0326 230.9 71.7969C230.9 71.6581 230.886 71.5331 230.886 71.3943C228.97 71.3943 227.082 71.3943 225.194 71.3943C225.194 73.0743 225.194 74.7404 225.194 76.4205ZM230.886 65.5766C228.97 65.5766 227.082 65.5766 225.194 65.5766C225.194 67.0762 225.194 68.5479 225.194 70.0197C227.096 70.0197 228.984 70.0197 230.886 70.0197C230.886 68.534 230.886 67.0762 230.886 65.5766ZM238.231 65.5766C236.204 65.5766 234.219 65.5766 232.233 65.5766C232.233 67.0762 232.233 68.5479 232.233 70.0336C233.913 70.0336 235.565 70.0336 237.218 70.0197C237.273 70.0197 237.37 69.9225 237.384 69.8531C237.44 69.6309 237.468 69.4088 237.523 69.2005C237.773 68.0064 237.995 66.8124 238.231 65.5766ZM218.71 71.3804C218.723 71.4359 218.723 71.4776 218.723 71.5053C219.251 73.2826 219.779 75.0598 220.306 76.837C220.348 77.0036 220.431 77.0175 220.584 77.0036C221.112 76.9342 221.639 76.8786 222.181 76.8092C222.722 76.7398 223.278 76.6704 223.819 76.601C223.819 74.8515 223.819 73.116 223.819 71.3804C222.125 71.3804 220.431 71.3804 218.71 71.3804ZM232.247 71.3804C232.247 72.7966 232.247 74.1712 232.247 75.5735C232.303 75.5735 232.344 75.5735 232.386 75.5735C233.663 75.4208 234.954 75.2542 236.232 75.1153C236.398 75.1014 236.426 75.0042 236.44 74.8793C236.579 74.1295 236.732 73.3659 236.871 72.6161C236.954 72.2135 237.023 71.8108 237.107 71.3804C235.482 71.3804 233.871 71.3804 232.247 71.3804Z" fill="white"/>
<path d="M219.209 90.305C217.682 90.305 216.432 89.0415 216.432 87.5142C216.432 85.9869 217.696 84.7373 219.223 84.7373C220.764 84.7373 222.014 86.0008 222 87.5559C222 89.0693 220.75 90.305 219.209 90.305Z" fill="white"/>
<path d="M235.135 84.7233C236.69 84.751 237.898 86.0006 237.885 87.5696C237.871 89.0969 236.593 90.3187 235.052 90.3048C233.525 90.2909 232.289 88.9997 232.317 87.4724C232.331 85.9173 233.594 84.7094 235.135 84.7233Z" fill="white"/>
<g opacity="0.3">
<g opacity="0.3">
<path opacity="0.3" d="M259.961 70.7832H260.586" stroke="#1965FF" stroke-width="0.8904" stroke-miterlimit="10" stroke-linecap="round"/>
<path opacity="0.3" d="M264.293 70.7832H464.078C468.604 70.7832 472.269 74.4071 472.269 78.8918V289.048C472.269 293.519 468.604 297.157 464.078 297.157H377.619" stroke="#1965FF" stroke-width="0.8904" stroke-miterlimit="10" stroke-linecap="round" stroke-dasharray="0.89 0.89"/>
<path opacity="0.3" d="M375.758 297.143H375.133" stroke="#1965FF" stroke-width="0.8904" stroke-miterlimit="10" stroke-linecap="round"/>
</g>
</g>
<path d="M460.924 25.9225H374.979C368.342 25.9225 362.955 20.5353 362.955 13.8985C362.955 7.26172 368.342 1.87451 374.979 1.87451H460.924C467.561 1.87451 472.948 7.26172 472.948 13.8985C472.935 20.5353 467.561 25.9225 460.924 25.9225Z" fill="#0439C7"/>
<path d="M468.241 4.35977L465.339 2.16602C465.339 2.16602 468.394 6.78957 468.241 6.70626C468.102 6.63684 468.241 4.35977 468.241 4.35977Z" fill="#0439C7"/>
<path d="M368.106 23.7288L365.177 21.5767C365.177 21.5767 370.467 23.1734 370.356 23.0623C370.245 22.9512 368.106 23.7288 368.106 23.7288Z" fill="#0439C7"/>
<path d="M458.454 24.048H372.508C365.872 24.048 360.484 18.6608 360.484 12.024C360.484 5.38719 365.872 0 372.508 0H458.454C465.09 0 470.478 5.38719 470.478 12.024C470.478 18.6608 465.09 24.048 458.454 24.048Z" fill="#3686E3"/>
<path opacity="0.3" d="M360.484 12.0239H94.151C88.9443 12.0239 84.7373 16.2448 84.7373 21.4377V171.21C84.7373 176.417 88.9582 180.624 94.151 180.624H117.408" stroke="#1965FF" stroke-width="0.8904" stroke-miterlimit="10" stroke-linecap="round" stroke-dasharray="0.89 0.89"/>
<path d="M248.921 433.086C248.768 432.823 248.671 432.517 248.671 432.184L248.629 426.963H236.813L238.119 435.822C241.479 436.724 245.727 434.697 248.921 433.086Z" fill="#FB9179"/>
<path d="M259.891 437.751L249.478 433.669C249.242 433.517 249.047 433.308 248.909 433.072C245.715 434.683 241.467 436.71 238.106 435.821L238.412 437.862C238.537 438.737 239.273 439.362 240.161 439.362H259.35C260.238 439.376 260.627 438.21 259.891 437.751Z" fill="#4A4A4A"/>
<path d="M162.754 433.017C162.727 432.767 162.782 432.489 162.893 432.198L165.087 426.977H153.271L151.508 433.267C155.257 434.627 159.005 434.294 162.754 433.017Z" fill="#FB9179"/>
<path d="M174.389 437.751L163.073 433.669C162.879 433.503 162.768 433.267 162.74 433.003C158.991 434.294 155.243 434.614 151.494 433.253L150.189 437.863C149.939 438.737 150.411 439.362 151.299 439.362H173.14C174.042 439.376 174.931 438.21 174.389 437.751Z" fill="#4A4A4A"/>
<path d="M306.834 224.846C306.834 224.846 312.901 223.041 314.817 223.083C316.733 223.124 321.815 225.499 323.19 226.443C324.564 227.373 327.994 232.941 327.869 233.649C327.744 234.371 326.924 234.662 325.605 233.968C324.286 233.274 318.261 229.983 317.455 229.706C316.664 229.428 314.97 230.025 314.97 230.025C314.97 230.025 316.22 231.066 317.552 231.719C318.899 232.371 320.274 232.274 320.579 232.788C320.899 233.302 320.788 234.482 319.344 234.635C317.9 234.801 313.387 234.329 310.735 233.718C308.083 233.093 305.737 231.233 305.737 231.233L300.613 230.733L301.321 223.485L306.834 224.846Z" fill="#FB9179"/>
<path d="M131.278 285.258C131.278 285.258 129.126 287.646 128.057 289.423C126.974 291.186 126.432 294.144 126.405 294.963C126.224 300.767 128.751 303.738 129.584 304.002C130.417 304.266 132.958 304.141 133.625 303.308C134.291 302.475 134.097 298.42 134.708 296.504C135.874 294.894 136.943 293.172 136.943 293.172C136.943 293.172 137.415 294.047 137.679 294.505C137.943 294.963 137.221 296.726 137.582 297.643C137.943 298.559 138.915 299.239 139.206 299.003C139.498 298.767 139.303 296.948 139.762 295.616C140.22 294.283 140.498 292.228 140.206 291.339C139.914 290.45 138.693 288.618 138.776 287.34C138.845 286.063 140.192 283.786 140.192 283.786L132.222 280.995L131.278 285.258Z" fill="#FB9179"/>
<path d="M131.278 285.258C131.278 285.258 129.126 287.646 128.057 289.423C126.974 291.186 126.432 294.144 126.405 294.963C126.224 300.767 128.751 303.738 129.584 304.002C130.417 304.266 132.958 304.141 133.625 303.308C134.291 302.475 134.097 298.42 134.708 296.504C135.874 294.894 136.943 293.172 136.943 293.172C136.943 293.172 137.415 294.047 137.679 294.505C137.943 294.963 137.221 296.726 137.582 297.643C137.943 298.559 138.915 299.239 139.206 299.003C139.498 298.767 139.303 296.948 139.762 295.616C140.22 294.283 140.498 292.228 140.206 291.339C139.914 290.45 138.693 288.618 138.776 287.34C138.845 286.063 140.192 283.786 140.192 283.786L132.222 280.995L131.278 285.258Z" fill="#FB9179"/>
<path d="M224.179 194.717L259.793 215.099L304.001 222.403C307.403 222.333 307.653 233.968 304.251 234.052L260.043 234.593C257.89 234.621 255.752 234.163 253.808 233.246L215.695 215.321L224.179 194.717Z" fill="#2274D5"/>
<path d="M175.097 278.065C175.097 278.065 169.973 293.422 176.069 307.14C174.18 322.038 171.584 366.427 171.584 366.427L150.035 427.699C150.035 430.184 168.321 430.184 168.321 427.699L198.27 367.44L209.53 308.542L226.831 365.413L234.328 427.699C234.328 430.184 250.92 430.184 250.92 427.699L250.587 358.637L236.369 278.065H175.097Z" fill="black"/>
<path d="M231.287 226.401C231.287 226.401 234.342 214.335 230.912 200.118C229.288 193.397 223.512 188.885 216.125 186.636C214.279 186.08 212.293 186.191 210.447 186.747C208.253 187.399 206.004 187.83 203.699 187.871C201.713 187.913 199.478 187.677 197.409 187.038C195.313 186.386 193.049 186.483 191.008 187.288C185.052 189.593 180.151 193.717 177.54 199.881C176.277 202.867 175.444 206.407 175.444 210.531C175.444 217.404 176.36 224.929 177.443 231.372V231.385C177.999 234.759 178.609 237.828 179.151 240.355C180.053 244.631 180.762 247.353 180.762 247.353L175.097 278.079C175.097 278.079 192.313 283.786 210.349 283.786C228.386 283.786 236.383 278.079 236.383 278.079L231.287 226.401Z" fill="#2F80DE"/>
<path d="M181.401 194.536L150.757 227.512C148.619 229.817 146.981 232.552 145.953 235.523L130.25 281.134C129.111 283.592 140.483 288.868 141.621 286.424L161.921 244.993L198.006 213.308L181.401 194.536Z" fill="#2F80DE"/>
<path d="M193.091 217.64L179.165 240.355C178.623 237.828 178.012 234.76 177.457 231.386V231.372L193.091 217.64Z" fill="#2D7BD8"/>
<path d="M186.857 287.049C186.857 287.049 192.703 294.81 184.441 305.862C181.526 334.548 179.624 364.136 179.624 364.136L157.658 425.964" stroke="#4F4F4F" stroke-width="0.4114" stroke-miterlimit="10" stroke-linecap="round"/>
<path d="M215.558 308.875L231.553 364.136L238.12 425.964" stroke="#4F4F4F" stroke-width="0.4114" stroke-miterlimit="10" stroke-linecap="round"/>
<path d="M215.557 178.291C213.946 180.235 209.795 178.722 209.795 178.722L210.322 180.624L212.336 187.969C212.336 187.969 210.753 189.038 204.852 189.038C198.951 189.038 196.785 187.969 196.785 187.969L198.257 174.806C198.257 174.806 191.453 165.295 196.16 157.867C200.853 150.439 211.544 153.174 214.668 156.395C215.779 157.534 216.89 160.172 217.056 163.49C217.098 164.31 216.39 165.309 216.418 166.184C216.459 167.392 218.584 169.211 218.556 170.377C218.542 170.919 217.098 171.571 216.737 171.682C216.556 175.126 216.126 177.597 215.557 178.291Z" fill="#FB9179"/>
<path d="M216.848 144.885C211.502 143.802 210.238 148.398 210.238 148.398C210.238 148.398 204.99 148.023 200.7 149.161C196.41 150.286 196.257 153.313 196.257 153.313C196.257 153.313 191.356 153.993 190.036 158.353C188.731 162.713 194.132 174.987 198.256 174.82C199.506 174.39 201.325 174.39 201.325 174.39C201.325 174.39 198.284 164.99 201.033 163.476C203.782 161.949 205.434 168.128 205.434 168.128L206.698 167.794C206.698 167.794 207.364 162.782 207.892 161.796C208.42 160.824 211.571 158.992 212.016 156.964C213.46 157.048 214.945 157.45 218.028 155.52C221.11 153.591 221.457 145.829 216.848 144.885Z" fill="black"/>
<path d="M196.673 153.813C196.673 153.813 195.271 151.077 196.159 148.828C194.924 150.258 195.424 152.632 195.424 152.632C195.424 152.632 193.619 151.522 191.869 152.035C193.202 152.452 194.979 153.438 195.521 154.576C195.979 153.938 196.673 153.813 196.673 153.813Z" fill="black"/>
<path d="M210.323 180.624C208.351 179.305 206.005 177.652 205.769 177.486L209.795 178.722L210.323 180.624Z" fill="#FB9179"/>
<path d="M184.512 228.998L185.873 246.201L182.971 274.608" stroke="#1B65BC" stroke-width="0.4426" stroke-miterlimit="10" stroke-linecap="round"/>
<path d="M214.405 166.337C214.704 166.337 214.946 165.889 214.946 165.337C214.946 164.785 214.704 164.337 214.405 164.337C214.106 164.337 213.863 164.785 213.863 165.337C213.863 165.889 214.106 166.337 214.405 166.337Z" fill="black"/>
<path d="M217.028 164.129C217.028 164.129 216.237 165.42 216.431 166.337C216.639 167.267 218.542 169.363 218.555 170.141C218.555 171.404 216.403 171.765 216.403 171.765" stroke="black" stroke-width="0.25" stroke-miterlimit="10" stroke-linecap="round"/>
<path d="M211.128 172.168C211.128 172.168 212.017 173.987 214.405 174.14" stroke="black" stroke-width="0.25" stroke-miterlimit="10" stroke-linecap="round"/>
<path d="M196.271 185.872C196.271 185.872 199.798 187.274 204.769 187.163C209.725 187.052 212.391 185.983 212.919 185.872C213.446 185.761 214.946 187.038 214.946 187.038C214.946 187.038 211.988 189.204 204.338 189.204C196.688 189.204 194.508 187.247 194.508 187.247C194.508 187.247 195.188 186.039 196.271 185.872Z" fill="#91A8E6"/>
<mask id="mask0" mask-type="alpha" maskUnits="userSpaceOnUse" x="126" y="280" width="15" height="25">
<path d="M139.775 295.616C139.581 296.157 139.511 296.782 139.456 297.337L137.72 295.199C137.762 294.894 137.776 294.644 137.693 294.505C137.415 294.047 136.957 293.158 136.957 293.158C136.957 293.158 135.874 294.894 134.707 296.504C134.11 298.42 134.291 302.475 133.638 303.308C132.972 304.141 130.431 304.266 129.598 304.002C128.765 303.738 126.238 300.767 126.418 294.963C126.446 294.144 126.988 291.187 128.071 289.423C129.14 287.646 131.292 285.258 131.292 285.258L132.236 280.981L140.192 283.786C140.192 283.786 138.859 286.063 138.79 287.341C138.706 288.632 139.928 290.465 140.22 291.339C140.511 292.214 140.233 294.283 139.775 295.616Z" fill="black"/>
</mask>
<g mask="url(#mask0)">
<path d="M178.445 358.054L79.4067 438.404C75.9911 441.181 70.9787 440.653 68.2018 437.238L23.2159 381.797C20.439 378.381 20.9666 373.369 24.3822 370.592L123.421 290.242C126.836 287.465 131.849 287.993 134.625 291.409L179.611 346.85C182.388 350.265 181.861 355.277 178.445 358.054Z" fill="#A7CCF7"/>
<path d="M137.941 295.464L26.5371 385.863L37.4992 399.372L148.903 308.973L137.941 295.464Z" fill="#2874CE"/>
</g>
<defs>
<linearGradient id="paint0_linear" x1="146.832" y1="440.267" x2="450.145" y2="440.267" gradientUnits="userSpaceOnUse">
<stop stop-color="#D8D8D8" stop-opacity="0.97"/>
<stop offset="1" stop-color="#C7C8CA"/>
</linearGradient>
<linearGradient id="paint1_linear" x1="42.8529" y1="440.267" x2="130.386" y2="440.267" gradientUnits="userSpaceOnUse">
<stop stop-color="#D8D8D8" stop-opacity="0.97"/>
<stop offset="1" stop-color="#C7C8CA"/>
</linearGradient>
<linearGradient id="paint2_linear" x1="-nan" y1="-nan" x2="-nan" y2="-nan" gradientUnits="userSpaceOnUse">
<stop stop-color="#D8D8D8" stop-opacity="0.97"/>
<stop offset="1" stop-color="#C7C8CA"/>
</linearGradient>
<linearGradient id="paint3_linear" x1="354.326" y1="420.601" x2="354.326" y2="113.041" gradientUnits="userSpaceOnUse">
<stop stop-color="#D8D8D8" stop-opacity="0.97"/>
<stop offset="1" stop-color="#C7C8CA"/>
</linearGradient>
<linearGradient id="paint4_linear" x1="400.421" y1="390.009" x2="400.421" y2="113.041" gradientUnits="userSpaceOnUse">
<stop stop-color="#D8D8D8" stop-opacity="0"/>
<stop offset="1" stop-color="#D8D8D8"/>
</linearGradient>
<linearGradient id="paint5_linear" x1="386.946" y1="390.009" x2="386.946" y2="113.041" gradientUnits="userSpaceOnUse">
<stop stop-color="#D8D8D8" stop-opacity="0"/>
<stop offset="1" stop-color="#D8D8D8"/>
</linearGradient>
<linearGradient id="paint6_linear" x1="354.298" y1="184.878" x2="354.298" y2="154.559" gradientUnits="userSpaceOnUse">
<stop stop-color="#C7C8CA" stop-opacity="0"/>
<stop offset="0.1442" stop-color="#C7C8CA" stop-opacity="0.1442"/>
<stop offset="1" stop-color="#C7C8CA"/>
</linearGradient>
<linearGradient id="paint7_linear" x1="354.298" y1="359.599" x2="354.298" y2="341.753" gradientUnits="userSpaceOnUse">
<stop stop-color="#C7C8CA" stop-opacity="0"/>
<stop offset="1" stop-color="#C7C8CA"/>
</linearGradient>
<linearGradient id="paint8_linear" x1="204.407" y1="389.765" x2="204.407" y2="381.437" gradientUnits="userSpaceOnUse">
<stop stop-color="#D8D8D8" stop-opacity="0.97"/>
<stop offset="1" stop-color="#C7C8CA"/>
</linearGradient>
<linearGradient id="paint9_linear" x1="218.155" y1="398.945" x2="218.155" y2="390.617" gradientUnits="userSpaceOnUse">
<stop stop-color="#D8D8D8" stop-opacity="0.97"/>
<stop offset="1" stop-color="#C7C8CA"/>
</linearGradient>
<linearGradient id="paint10_linear" x1="337.047" y1="307.802" x2="394.134" y2="282.946" gradientUnits="userSpaceOnUse">
<stop stop-color="#C7C8CA" stop-opacity="0"/>
<stop offset="1" stop-color="#C7C8CA"/>
</linearGradient>
<linearGradient id="paint11_linear" x1="208.553" y1="57.5804" x2="253.922" y2="101.894" gradientUnits="userSpaceOnUse">
<stop stop-color="#C7C8CA" stop-opacity="0"/>
<stop offset="1" stop-color="#C7C8CA"/>
</linearGradient>
</defs>
</svg>
