<svg xmlns="http://www.w3.org/2000/svg" width="36" height="30" viewBox="0 0 36 30">
  <g id="Icon_feather-archive" data-name="Icon feather-archive" transform="translate(0 -3)">
    <path id="Path_423" data-name="Path 423" d="M31.5,12V31.5H4.5V12" fill="none" stroke="#aaa" stroke-linecap="round" stroke-linejoin="round" stroke-width="3"/>
    <path id="Path_424" data-name="Path 424" d="M1.5,4.5h33V12H1.5Z" fill="none" stroke="#aaa" stroke-linecap="round" stroke-linejoin="round" stroke-width="3"/>
    <path id="Path_425" data-name="Path 425" d="M15,18h6" fill="none" stroke="#aaa" stroke-linecap="round" stroke-linejoin="round" stroke-width="3"/>
  </g>
</svg>
