<svg width="162" height="56" viewBox="0 0 162 56" fill="none" xmlns="http://www.w3.org/2000/svg">
<path fill-rule="evenodd" clip-rule="evenodd" d="M145.983 24.3392H148.041L150.466 30.7427H148.641L148.186 29.3862H145.721L145.244 30.7427H143.555L145.983 24.3392ZM146.978 25.7671L146.15 28.1683H147.78L146.978 25.7671ZM141.388 24.3392H143.094V30.7427H141.388V24.3392ZM140.11 24.4125L139.983 25.7334C139.722 25.6225 139.471 25.5393 139.231 25.4838C138.991 25.4279 138.758 25.4002 138.533 25.4002C138.187 25.4002 137.918 25.4549 137.725 25.5646C137.531 25.6744 137.434 25.8253 137.434 26.0175C137.434 26.1526 137.483 26.2706 137.582 26.3708C137.681 26.4715 137.83 26.5551 138.027 26.6212L138.311 26.7112C139.043 26.9485 139.53 27.1569 139.77 27.3371C139.995 27.511 140.161 27.7099 140.266 27.9334C140.371 28.1572 140.423 28.4195 140.423 28.7194C140.423 29.425 140.189 29.9634 139.721 30.3342C139.253 30.705 138.574 30.89 137.685 30.89C137.364 30.89 137.042 30.8679 136.719 30.8227C136.397 30.7775 136.076 30.7102 135.758 30.6199L135.902 29.1928C136.202 29.3283 136.494 29.4313 136.777 29.5014C137.061 29.5724 137.329 29.6076 137.581 29.6076C137.917 29.6076 138.183 29.5446 138.377 29.4182C138.573 29.2923 138.67 29.1211 138.67 28.9048C138.67 28.6374 138.358 28.3957 137.735 28.1798L137.389 28.0578C136.779 27.8387 136.343 27.5839 136.082 27.2939C135.821 27.0039 135.69 26.6339 135.69 26.1831C135.69 25.5401 135.92 25.046 136.38 24.7006C136.839 24.3551 137.498 24.1824 138.357 24.1824C138.673 24.1824 138.976 24.201 139.267 24.2386C139.558 24.2763 139.839 24.3341 140.11 24.4125ZM130.236 24.3392H134.683V25.5385H131.943V26.8304H134.527V28.0483H131.943V29.5062H134.785V30.7427H130.236V24.3392ZM123.156 24.3392H125.287L127.141 28.1782C127.204 28.3074 127.278 28.4872 127.362 28.717C127.446 28.9468 127.539 29.2285 127.641 29.5617C127.587 29.2463 127.547 28.9567 127.522 28.6921C127.496 28.4278 127.484 28.1861 127.484 27.9667V24.3392H129.024V30.7427H126.903L124.976 26.7635C124.886 26.5804 124.803 26.3811 124.728 26.1664C124.653 25.9517 124.585 25.7179 124.522 25.4656C124.581 25.8471 124.626 26.1981 124.654 26.5178C124.683 26.8375 124.697 27.1192 124.697 27.3625V30.7427H123.156V24.3392ZM118.987 24.1824C119.981 24.1824 120.758 24.4791 121.318 25.0722C121.878 25.6653 122.158 26.4873 122.158 27.5388C122.158 28.5926 121.878 29.4147 121.318 30.005C120.758 30.5949 119.981 30.89 118.987 30.89C117.986 30.89 117.205 30.5949 116.644 30.005C116.082 29.4147 115.801 28.5926 115.801 27.5388C115.801 26.4873 116.083 25.6653 116.646 25.0722C117.209 24.4791 117.989 24.1824 118.987 24.1824ZM118.987 25.4279C118.545 25.4279 118.19 25.6177 117.92 25.9976C117.652 26.378 117.517 26.8859 117.517 27.5225C117.517 28.162 117.651 28.6726 117.918 29.0538C118.186 29.4353 118.542 29.6262 118.987 29.6262C119.428 29.6262 119.781 29.4361 120.045 29.0561C120.31 28.6766 120.442 28.1651 120.442 27.5225C120.442 26.889 120.309 26.3811 120.043 26C119.778 25.6185 119.425 25.4279 118.987 25.4279ZM108.996 24.3392H111.239C111.824 24.3392 112.314 24.3761 112.709 24.4494C113.104 24.5231 113.427 24.6364 113.675 24.7897C114.141 25.0872 114.492 25.4636 114.73 25.9184C114.967 26.374 115.086 26.9017 115.086 27.5027C115.086 28.1636 114.961 28.7253 114.714 29.1877C114.466 29.6504 114.089 30.0303 113.581 30.3279C113.329 30.4721 113.006 30.5775 112.613 30.6432C112.219 30.7094 111.691 30.7427 111.027 30.7427H108.996V24.3392ZM110.712 25.5753V29.4598H111.45C112.051 29.4598 112.515 29.2903 112.842 28.9508C113.169 28.6112 113.333 28.1291 113.333 27.5043C113.333 26.8855 113.162 26.4093 112.822 26.0757C112.481 25.7421 111.994 25.5753 111.36 25.5753H110.712ZM101.916 24.3392H104.046L105.901 28.1782C105.964 28.3074 106.037 28.4872 106.121 28.717C106.206 28.9468 106.299 29.2285 106.401 29.5617C106.346 29.2463 106.307 28.9567 106.281 28.6921C106.256 28.4278 106.243 28.1861 106.243 27.9667V24.3392H107.784V30.7427H105.662L103.736 26.7635C103.646 26.5804 103.563 26.3811 103.488 26.1664C103.413 25.9517 103.344 25.7179 103.281 25.4656C103.341 25.8471 103.385 26.1981 103.414 26.5178C103.442 26.8375 103.457 27.1192 103.457 27.3625V30.7427H101.916V24.3392ZM98.9732 24.3392H100.68V30.7427H98.9732V24.3392ZM90.5449 24.3392H95.4258V25.6217H93.8387V30.7427H92.132V25.6217H90.5449V24.3392ZM86.4674 24.3392H88.5268L90.9506 30.7427H89.1262L88.671 29.3862H86.2063L85.729 30.7427H84.04L86.4674 24.3392ZM87.4634 25.7671L86.6346 28.1683H88.2653L87.4634 25.7671ZM78.5637 24.3392H80.4998L81.7783 27.0428L83.054 24.3392H84.8914L82.5667 28.345V30.7427H80.8599V28.3632L78.5637 24.3392ZM73.4653 24.3392H75.1724V27.1062L77.1553 24.3392H79.066L76.7135 27.2817L79.3057 30.7427H77.185L75.1724 27.7729V30.7427H73.4653V24.3392ZM68.6129 24.3392H70.6722L73.096 30.7427H71.2712L70.8164 29.3862H68.3518L67.8744 30.7427H66.1855L68.6129 24.3392ZM69.6089 25.7671L68.7801 28.1683H70.4107L69.6089 25.7671ZM60.8981 24.3392H63.442C64.2898 24.3392 64.9189 24.4767 65.3293 24.7517C65.7398 25.0266 65.945 25.445 65.945 26.0068C65.945 26.4216 65.8368 26.7627 65.6201 27.0301C65.4034 27.2975 65.0904 27.4766 64.6812 27.5665C65.0183 27.6897 65.2889 28.0392 65.4938 28.616L66.2584 30.7427H64.4784L63.9146 28.9896C63.8247 28.7079 63.7015 28.5122 63.5454 28.4044C63.3893 28.2959 63.146 28.242 62.8156 28.242H62.5684V30.7427H60.8981V24.3392ZM62.5684 25.4648V27.1073H63.167C63.5366 27.1073 63.8136 27.0404 63.9978 26.9065C64.1828 26.7726 64.2751 26.5721 64.2751 26.3043C64.2751 26.0155 64.1721 25.8035 63.9665 25.668C63.7609 25.5325 63.436 25.4648 62.9915 25.4648H62.5684ZM51.7602 24.3392H53.4674V27.1062L55.4498 24.3392H57.3606L55.0089 27.2817L57.6007 30.7427H55.48L53.4674 27.7729V30.7427H51.7602V24.3392ZM44.6801 24.3392H46.8108L48.6653 28.1782C48.7283 28.3074 48.802 28.4872 48.886 28.717C48.97 28.9468 49.0631 29.2285 49.1653 29.5617C49.111 29.2463 49.0714 28.9567 49.0456 28.6921C49.0203 28.4278 49.0076 28.1861 49.0076 27.9667V24.3392H50.5483V30.7427H48.4268L46.5002 26.7635C46.4103 26.5804 46.3275 26.3811 46.2526 26.1664C46.1773 25.9517 46.1088 25.7179 46.0454 25.4656C46.1056 25.8471 46.1496 26.1981 46.1785 26.5178C46.2066 26.8375 46.2209 27.1192 46.2209 27.3625V30.7427H44.6801V24.3392ZM39.8278 24.3392H41.8871L44.3109 30.7427H42.4865L42.0313 29.3862H39.5667L39.0893 30.7427H37.4004L39.8278 24.3392ZM40.8237 25.7671L39.9945 28.1683H41.6256L40.8237 25.7671ZM32.0468 24.3392H34.6679C35.4429 24.3392 36.0252 24.4783 36.4159 24.7564C36.8061 25.0341 37.001 25.4481 37.001 25.998C37.001 26.3677 36.8992 26.6751 36.6948 26.9199C36.4907 27.1648 36.1932 27.3411 35.8026 27.4496C36.2412 27.5309 36.5779 27.7024 36.8136 27.9655C37.0494 28.2281 37.1674 28.5637 37.1674 28.9722C37.1674 29.5728 36.9527 30.0177 36.5232 30.3077C36.0938 30.5977 35.4322 30.7427 34.5372 30.7427H32.0468V24.3392ZM33.7167 25.4925V26.9227H34.2353C34.5958 26.9227 34.8656 26.8617 35.0447 26.7401C35.2234 26.6181 35.3129 26.4326 35.3129 26.1827C35.3129 25.9572 35.2285 25.7857 35.0602 25.6684C34.8922 25.5512 34.6438 25.4925 34.3165 25.4925H33.7167ZM33.7167 28.0574V29.5613H34.3886C34.7369 29.5613 35.0011 29.4963 35.1814 29.3656C35.3612 29.2352 35.4512 29.045 35.4512 28.7959C35.4512 28.5498 35.3688 28.3652 35.2036 28.242C35.0384 28.1188 34.7923 28.0574 34.4651 28.0574H33.7167ZM8 20.7265C8 19.2206 9.22062 18 10.7265 18H24.2881C25.7935 18 27.0142 19.2206 27.0142 20.7265V34.2881C27.0142 35.7939 25.7935 37.0146 24.2881 37.0146H10.7265C9.22062 37.0146 8 35.7939 8 34.2881V20.7265ZM11.3172 35.1513C10.5137 35.1513 9.86323 34.5004 9.86323 33.6974V21.3216C9.86323 20.5189 10.5137 19.8676 11.3172 19.8676H12.9756C15.1609 19.8676 16.7797 22.0822 15.3816 23.4819L11.3263 27.5431L14.8067 31.1892C16.4941 32.9569 14.5183 35.1513 12.646 35.1513H11.3172ZM16.58 19.8676H17.9817C20.167 19.8676 21.7858 22.0822 20.3881 23.4819L16.3324 27.5431L23.7877 35.1486L15.9204 35.147C17.6105 35.147 18.6778 32.3032 16.8684 30.4194L14.1059 27.5431L17.3221 24.2275C19.0542 22.4419 17.7967 20.1453 16.58 19.8676ZM25.1494 33.6974L19.112 27.5431L22.3282 24.2275C24.0599 22.4419 22.8028 20.1453 21.5861 19.8676H23.6926C24.4957 19.8676 25.1466 20.5189 25.1466 21.3216L25.1494 33.6974Z" fill="#1F4396"/>
</svg>
